-------------------------------------------------------------------------------
Test set: com.t4p.volleyball.web.controller.NewsControllerTest
-------------------------------------------------------------------------------
Tests run: 4, Failures: 0, Errors: 0, Skipped: 0, Time elapsed: 8.124 sec - in com.t4p.volleyball.web.controller.NewsControllerTest
