/home/tech4planet/abhishek/work/volleyball/core/src/main/java/com/t4p/volleyball/service/NewsService.java
/home/tech4planet/abhishek/work/volleyball/core/src/main/java/com/t4p/volleyball/CoreConfig.java
/home/tech4planet/abhishek/work/volleyball/core/src/main/java/com/t4p/volleyball/exception/AppException.java
/home/tech4planet/abhishek/work/volleyball/core/src/main/java/com/t4p/volleyball/persistence/Image.java
/home/tech4planet/abhishek/work/volleyball/core/src/main/java/com/t4p/volleyball/repository/NewsRepo.java
/home/tech4planet/abhishek/work/volleyball/core/src/main/java/com/t4p/volleyball/persistence/News.java
