-------------------------------------------------------------------------------
Test set: com.t4p.volleyball.service.NewsServiceTest
-------------------------------------------------------------------------------
Tests run: 4, Failures: 0, Errors: 0, Skipped: 0, Time elapsed: 3.906 sec - in com.t4p.volleyball.service.NewsServiceTest
