<?xml version="1.0" encoding="UTF-8"?>
<testsuite name="com.t4p.restaurant.service.OrderItemServiceTest" time="0.022" tests="1" errors="0" skipped="0" failures="1">
  <properties>
    <property name="java.runtime.name" value="OpenJDK Runtime Environment"/>
    <property name="sun.boot.library.path" value="/usr/lib/jvm/java-8-openjdk-amd64/jre/lib/amd64"/>
    <property name="java.vm.version" value="25.121-b13"/>
    <property name="java.vm.vendor" value="Oracle Corporation"/>
    <property name="maven.multiModuleProjectDirectory" value="/home/tech4planet/abhishek/work/restaurant"/>
    <property name="java.vendor.url" value="http://java.oracle.com/"/>
    <property name="path.separator" value=":"/>
    <property name="guice.disable.misplaced.annotation.check" value="true"/>
    <property name="java.vm.name" value="OpenJDK 64-Bit Server VM"/>
    <property name="file.encoding.pkg" value="sun.io"/>
    <property name="user.country" value="IN"/>
    <property name="sun.java.launcher" value="SUN_STANDARD"/>
    <property name="sun.os.patch.level" value="unknown"/>
    <property name="java.vm.specification.name" value="Java Virtual Machine Specification"/>
    <property name="user.dir" value="/home/tech4planet/abhishek/work/restaurant"/>
    <property name="java.runtime.version" value="1.8.0_121-8u121-b13-0ubuntu1.16.04.2-b13"/>
    <property name="java.awt.graphicsenv" value="sun.awt.X11GraphicsEnvironment"/>
    <property name="java.endorsed.dirs" value="/usr/lib/jvm/java-8-openjdk-amd64/jre/lib/endorsed"/>
    <property name="os.arch" value="amd64"/>
    <property name="java.io.tmpdir" value="/tmp"/>
    <property name="line.separator" value="&#10;"/>
    <property name="java.vm.specification.vendor" value="Oracle Corporation"/>
    <property name="os.name" value="Linux"/>
    <property name="net.sourceforge.cobertura.datafile" value="/home/tech4planet/abhishek/work/restaurant/core/target/cobertura/cobertura.ser"/>
    <property name="classworlds.conf" value="/usr/share/maven/bin/m2.conf"/>
    <property name="sun.jnu.encoding" value="UTF-8"/>
    <property name="java.library.path" value="/home/tech4planet/Downloads/idea-IU-162.2228.15/bin::/usr/java/packages/lib/amd64:/usr/lib/x86_64-linux-gnu/jni:/lib/x86_64-linux-gnu:/usr/lib/x86_64-linux-gnu:/usr/lib/jni:/lib:/usr/lib"/>
    <property name="java.specification.name" value="Java Platform API Specification"/>
    <property name="java.class.version" value="52.0"/>
    <property name="sun.management.compiler" value="HotSpot 64-Bit Tiered Compilers"/>
    <property name="os.version" value="4.4.0-64-generic"/>
    <property name="user.home" value="/home/tech4planet"/>
    <property name="user.timezone" value="Asia/Kolkata"/>
    <property name="java.awt.printerjob" value="sun.print.PSPrinterJob"/>
    <property name="java.specification.version" value="1.8"/>
    <property name="file.encoding" value="UTF-8"/>
    <property name="user.name" value="tech4planet"/>
    <property name="java.class.path" value="/usr/share/maven/boot/plexus-classworlds-2.x.jar"/>
    <property name="java.vm.specification.version" value="1.8"/>
    <property name="sun.arch.data.model" value="64"/>
    <property name="java.home" value="/usr/lib/jvm/java-8-openjdk-amd64/jre"/>
    <property name="sun.java.command" value="org.codehaus.plexus.classworlds.launcher.Launcher cobertura:cobertura"/>
    <property name="java.specification.vendor" value="Oracle Corporation"/>
    <property name="user.language" value="en"/>
    <property name="awt.toolkit" value="sun.awt.X11.XToolkit"/>
    <property name="java.vm.info" value="mixed mode"/>
    <property name="java.version" value="1.8.0_121"/>
    <property name="java.ext.dirs" value="/usr/lib/jvm/java-8-openjdk-amd64/jre/lib/ext:/usr/java/packages/lib/ext"/>
    <property name="securerandom.source" value="file:/dev/./urandom"/>
    <property name="sun.boot.class.path" value="/usr/lib/jvm/java-8-openjdk-amd64/jre/lib/resources.jar:/usr/lib/jvm/java-8-openjdk-amd64/jre/lib/rt.jar:/usr/lib/jvm/java-8-openjdk-amd64/jre/lib/sunrsasign.jar:/usr/lib/jvm/java-8-openjdk-amd64/jre/lib/jsse.jar:/usr/lib/jvm/java-8-openjdk-amd64/jre/lib/jce.jar:/usr/lib/jvm/java-8-openjdk-amd64/jre/lib/charsets.jar:/usr/lib/jvm/java-8-openjdk-amd64/jre/lib/jfr.jar:/usr/lib/jvm/java-8-openjdk-amd64/jre/classes"/>
    <property name="java.vendor" value="Oracle Corporation"/>
    <property name="maven.home" value="/usr/share/maven"/>
    <property name="file.separator" value="/"/>
    <property name="java.vendor.url.bug" value="http://bugreport.sun.com/bugreport/"/>
    <property name="sun.cpu.endian" value="little"/>
    <property name="sun.io.unicode.encoding" value="UnicodeLittle"/>
    <property name="project.build.outputDirectory" value="/home/tech4planet/abhishek/work/restaurant/core/target/generated-classes/cobertura"/>
    <property name="sun.desktop" value="gnome"/>
    <property name="sun.cpu.isalist" value=""/>
  </properties>
  <testcase name="createOrderItem" classname="com.t4p.restaurant.service.OrderItemServiceTest" time="0.022">
    <failure message="expected null, but was:&lt;SaleableItem(id=1, ver=0, dateCreated=null, dateModified=null, creatorId=null, modifierId=null, name=null, description=null, pluCode=null, inHouseItem=null, takeAwayItem=null, telephoneOrderItem=null, finishedItemCode=null, unitOfMeasurement=null, discountAllowedFlag=null, maintainStock=null)&gt;" type="java.lang.AssertionError"><![CDATA[java.lang.AssertionError: expected null, but was:<SaleableItem(id=1, ver=0, dateCreated=null, dateModified=null, creatorId=null, modifierId=null, name=null, description=null, pluCode=null, inHouseItem=null, takeAwayItem=null, telephoneOrderItem=null, finishedItemCode=null, unitOfMeasurement=null, discountAllowedFlag=null, maintainStock=null)>
	at org.junit.Assert.fail(Assert.java:88)
	at org.junit.Assert.failNotNull(Assert.java:755)
	at org.junit.Assert.assertNull(Assert.java:737)
	at org.junit.Assert.assertNull(Assert.java:747)
	at com.t4p.restaurant.service.OrderItemServiceTest.createOrderItem(OrderItemServiceTest.java:44)
]]></failure>
    <system-out><![CDATA[[DEBUG] After test class: context [DefaultTestContext@7ab2a07e testClass = LocationTypeServiceTest, testInstance = [null], testMethod = [null], testException = [null], mergedContextConfiguration = [MergedContextConfiguration@437c4b25 testClass = LocationTypeServiceTest, locations = '{}', classes = '{class com.t4p.restaurant.CoreConfig}', contextInitializerClasses = '[]', activeProfiles = '{}', propertySourceLocations = '{}', propertySourceProperties = '{org.springframework.boot.test.context.SpringBootTestContextBootstrapper=true}', contextCustomizers = set[org.springframework.boot.test.context.SpringBootTestContextCustomizer@52525845, org.springframework.boot.test.context.filter.ExcludeFilterContextCustomizer@68ceda24, org.springframework.boot.test.mock.mockito.MockitoContextCustomizer@0, org.springframework.boot.test.autoconfigure.properties.PropertyMappingContextCustomizer@0, org.springframework.boot.test.autoconfigure.web.servlet.WebDriverContextCustomizerFactory$Customizer@27fe3806], contextLoader = 'org.springframework.boot.test.context.SpringBootContextLoader', parent = [null]]], class annotated with @DirtiesContext [false] with mode [null].
[DEBUG] SpringJUnit4ClassRunner constructor called with [class com.t4p.restaurant.service.OrderItemServiceTest]
[DEBUG] Instantiating CacheAwareContextLoaderDelegate from class [org.springframework.test.context.cache.DefaultCacheAwareContextLoaderDelegate]
[DEBUG] Instantiating BootstrapContext using constructor [public org.springframework.test.context.support.DefaultBootstrapContext(java.lang.Class,org.springframework.test.context.CacheAwareContextLoaderDelegate)]
[DEBUG] Instantiating TestContextBootstrapper for test class [com.t4p.restaurant.service.OrderItemServiceTest] from class [org.springframework.boot.test.context.SpringBootTestContextBootstrapper]
[DEBUG] Did not detect default resource location for test class [com.t4p.restaurant.service.OrderItemServiceTest]: class path resource [com/t4p/restaurant/service/OrderItemServiceTest-context.xml] does not exist
[DEBUG] Did not detect default resource location for test class [com.t4p.restaurant.service.OrderItemServiceTest]: class path resource [com/t4p/restaurant/service/OrderItemServiceTestContext.groovy] does not exist
[INFO] Could not detect default resource locations for test class [com.t4p.restaurant.service.OrderItemServiceTest]: no resource found for suffixes {-context.xml, Context.groovy}.
[DEBUG] Could not find an 'annotation declaring class' for annotation type [org.springframework.test.context.ActiveProfiles] and class [com.t4p.restaurant.service.OrderItemServiceTest]
[DEBUG] @TestExecutionListeners is not present for class [com.t4p.restaurant.service.OrderItemServiceTest]: using defaults.
[INFO] Loaded default TestExecutionListener class names from location [META-INF/spring.factories]: [org.springframework.boot.test.mock.mockito.MockitoTestExecutionListener, org.springframework.boot.test.mock.mockito.ResetMocksTestExecutionListener, org.springframework.boot.test.autoconfigure.restdocs.RestDocsTestExecutionListener, org.springframework.boot.test.autoconfigure.web.client.MockRestServiceServerResetTestExecutionListener, org.springframework.boot.test.autoconfigure.web.servlet.MockMvcPrintOnlyOnFailureTestExecutionListener, org.springframework.boot.test.autoconfigure.web.servlet.WebDriverTestExecutionListener, org.springframework.test.context.web.ServletTestExecutionListener, org.springframework.test.context.support.DirtiesContextBeforeModesTestExecutionListener, org.springframework.test.context.support.DependencyInjectionTestExecutionListener, org.springframework.test.context.support.DirtiesContextTestExecutionListener, org.springframework.test.context.transaction.TransactionalTestExecutionListener, org.springframework.test.context.jdbc.SqlScriptsTestExecutionListener]
[INFO] Could not instantiate TestExecutionListener [org.springframework.test.context.web.ServletTestExecutionListener]. Specify custom listener classes or make the default listener classes (and their required dependencies) available. Offending class: [org/springframework/web/context/request/RequestAttributes]
[INFO] Using TestExecutionListeners: [org.springframework.test.context.support.DirtiesContextBeforeModesTestExecutionListener@4ef18604, org.springframework.boot.test.autoconfigure.SpringBootDependencyInjectionTestExecutionListener@372f0a99, org.springframework.test.context.support.DirtiesContextTestExecutionListener@16cf8438, org.springframework.test.context.transaction.TransactionalTestExecutionListener@3e5beab5, org.springframework.test.context.jdbc.SqlScriptsTestExecutionListener@7c588adc, org.springframework.boot.test.autoconfigure.web.client.MockRestServiceServerResetTestExecutionListener@33ec2c0c, org.springframework.boot.test.mock.mockito.MockitoTestExecutionListener@5968800d, org.springframework.boot.test.autoconfigure.web.servlet.WebDriverTestExecutionListener@3887c7d7, org.springframework.boot.test.mock.mockito.ResetMocksTestExecutionListener@b1b471, org.springframework.boot.test.autoconfigure.restdocs.RestDocsTestExecutionListener@526f6427, org.springframework.boot.test.autoconfigure.web.servlet.MockMvcPrintOnlyOnFailureTestExecutionListener@4f1afe8f]
[DEBUG] Retrieved @ProfileValueSourceConfiguration [null] for test class [com.t4p.restaurant.service.OrderItemServiceTest]
[DEBUG] Retrieved ProfileValueSource type [class org.springframework.test.annotation.SystemProfileValueSource] for class [com.t4p.restaurant.service.OrderItemServiceTest]
[DEBUG] Retrieved @ProfileValueSourceConfiguration [null] for test class [com.t4p.restaurant.service.OrderItemServiceTest]
[DEBUG] Retrieved ProfileValueSource type [class org.springframework.test.annotation.SystemProfileValueSource] for class [com.t4p.restaurant.service.OrderItemServiceTest]
[DEBUG] Before test class: context [DefaultTestContext@492521c4 testClass = OrderItemServiceTest, testInstance = [null], testMethod = [null], testException = [null], mergedContextConfiguration = [MergedContextConfiguration@443a06ad testClass = OrderItemServiceTest, locations = '{}', classes = '{class com.t4p.restaurant.CoreConfig}', contextInitializerClasses = '[]', activeProfiles = '{}', propertySourceLocations = '{}', propertySourceProperties = '{org.springframework.boot.test.context.SpringBootTestContextBootstrapper=true}', contextCustomizers = set[org.springframework.boot.test.context.SpringBootTestContextCustomizer@52525845, org.springframework.boot.test.context.filter.ExcludeFilterContextCustomizer@68ceda24, org.springframework.boot.test.mock.mockito.MockitoContextCustomizer@0, org.springframework.boot.test.autoconfigure.properties.PropertyMappingContextCustomizer@0, org.springframework.boot.test.autoconfigure.web.servlet.WebDriverContextCustomizerFactory$Customizer@27fe3806], contextLoader = 'org.springframework.boot.test.context.SpringBootContextLoader', parent = [null]]], class annotated with @DirtiesContext [false] with mode [null].
[DEBUG] Retrieved @ProfileValueSourceConfiguration [null] for test class [com.t4p.restaurant.service.OrderItemServiceTest]
[DEBUG] Retrieved ProfileValueSource type [class org.springframework.test.annotation.SystemProfileValueSource] for class [com.t4p.restaurant.service.OrderItemServiceTest]
[DEBUG] Performing dependency injection for test context [[DefaultTestContext@492521c4 testClass = OrderItemServiceTest, testInstance = com.t4p.restaurant.service.OrderItemServiceTest@6ddd1c51, testMethod = [null], testException = [null], mergedContextConfiguration = [MergedContextConfiguration@443a06ad testClass = OrderItemServiceTest, locations = '{}', classes = '{class com.t4p.restaurant.CoreConfig}', contextInitializerClasses = '[]', activeProfiles = '{}', propertySourceLocations = '{}', propertySourceProperties = '{org.springframework.boot.test.context.SpringBootTestContextBootstrapper=true}', contextCustomizers = set[org.springframework.boot.test.context.SpringBootTestContextCustomizer@52525845, org.springframework.boot.test.context.filter.ExcludeFilterContextCustomizer@68ceda24, org.springframework.boot.test.mock.mockito.MockitoContextCustomizer@0, org.springframework.boot.test.autoconfigure.properties.PropertyMappingContextCustomizer@0, org.springframework.boot.test.autoconfigure.web.servlet.WebDriverContextCustomizerFactory$Customizer@27fe3806], contextLoader = 'org.springframework.boot.test.context.SpringBootContextLoader', parent = [null]]]].
[DEBUG] Retrieved ApplicationContext from cache with key [[MergedContextConfiguration@443a06ad testClass = OrderItemServiceTest, locations = '{}', classes = '{class com.t4p.restaurant.CoreConfig}', contextInitializerClasses = '[]', activeProfiles = '{}', propertySourceLocations = '{}', propertySourceProperties = '{org.springframework.boot.test.context.SpringBootTestContextBootstrapper=true}', contextCustomizers = set[org.springframework.boot.test.context.SpringBootTestContextCustomizer@52525845, org.springframework.boot.test.context.filter.ExcludeFilterContextCustomizer@68ceda24, org.springframework.boot.test.mock.mockito.MockitoContextCustomizer@0, org.springframework.boot.test.autoconfigure.properties.PropertyMappingContextCustomizer@0, org.springframework.boot.test.autoconfigure.web.servlet.WebDriverContextCustomizerFactory$Customizer@27fe3806], contextLoader = 'org.springframework.boot.test.context.SpringBootContextLoader', parent = [null]]]
[DEBUG] Spring test ApplicationContext cache statistics: [DefaultContextCache@7e87ef9e size = 1, maxSize = 32, parentContextCount = 0, hitCount = 60, missCount = 1]
[DEBUG] Processing injected element of bean 'com.t4p.restaurant.service.OrderItemServiceTest': AutowiredFieldElement for public com.t4p.restaurant.repository.OrderItemRepo com.t4p.restaurant.service.OrderItemServiceTest.orderItemRepo
[DEBUG] Returning cached instance of singleton bean 'orderItemRepo'
[DEBUG] Autowiring by type from bean name 'com.t4p.restaurant.service.OrderItemServiceTest' to bean named 'orderItemRepo'
[DEBUG] Processing injected element of bean 'com.t4p.restaurant.service.OrderItemServiceTest': AutowiredFieldElement for public com.t4p.restaurant.service.OrderItemService com.t4p.restaurant.service.OrderItemServiceTest.orderItemService
[DEBUG] Returning cached instance of singleton bean 'orderItemService'
[DEBUG] Autowiring by type from bean name 'com.t4p.restaurant.service.OrderItemServiceTest' to bean named 'orderItemService'
[DEBUG] Returning cached instance of singleton bean 'org.springframework.transaction.config.internalTransactionAdvisor'
[DEBUG] Returning cached instance of singleton bean 'org.springframework.transaction.config.internalTransactionAdvisor'
[DEBUG] Before test method: context [DefaultTestContext@492521c4 testClass = OrderItemServiceTest, testInstance = com.t4p.restaurant.service.OrderItemServiceTest@6ddd1c51, testMethod = createOrderItem@OrderItemServiceTest, testException = [null], mergedContextConfiguration = [MergedContextConfiguration@443a06ad testClass = OrderItemServiceTest, locations = '{}', classes = '{class com.t4p.restaurant.CoreConfig}', contextInitializerClasses = '[]', activeProfiles = '{}', propertySourceLocations = '{}', propertySourceProperties = '{org.springframework.boot.test.context.SpringBootTestContextBootstrapper=true}', contextCustomizers = set[org.springframework.boot.test.context.SpringBootTestContextCustomizer@52525845, org.springframework.boot.test.context.filter.ExcludeFilterContextCustomizer@68ceda24, org.springframework.boot.test.mock.mockito.MockitoContextCustomizer@0, org.springframework.boot.test.autoconfigure.properties.PropertyMappingContextCustomizer@0, org.springframework.boot.test.autoconfigure.web.servlet.WebDriverContextCustomizerFactory$Customizer@27fe3806], contextLoader = 'org.springframework.boot.test.context.SpringBootContextLoader', parent = [null]]], class annotated with @DirtiesContext [false] with mode [null], method annotated with @DirtiesContext [false] with mode [null].
[DEBUG] Retrieved ApplicationContext from cache with key [[MergedContextConfiguration@443a06ad testClass = OrderItemServiceTest, locations = '{}', classes = '{class com.t4p.restaurant.CoreConfig}', contextInitializerClasses = '[]', activeProfiles = '{}', propertySourceLocations = '{}', propertySourceProperties = '{org.springframework.boot.test.context.SpringBootTestContextBootstrapper=true}', contextCustomizers = set[org.springframework.boot.test.context.SpringBootTestContextCustomizer@52525845, org.springframework.boot.test.context.filter.ExcludeFilterContextCustomizer@68ceda24, org.springframework.boot.test.mock.mockito.MockitoContextCustomizer@0, org.springframework.boot.test.autoconfigure.properties.PropertyMappingContextCustomizer@0, org.springframework.boot.test.autoconfigure.web.servlet.WebDriverContextCustomizerFactory$Customizer@27fe3806], contextLoader = 'org.springframework.boot.test.context.SpringBootContextLoader', parent = [null]]]
[DEBUG] Spring test ApplicationContext cache statistics: [DefaultContextCache@7e87ef9e size = 1, maxSize = 32, parentContextCount = 0, hitCount = 61, missCount = 1]
[DEBUG] Returning cached instance of singleton bean 'org.springframework.boot.test.mock.mockito.MockitoBeans'
[DEBUG] Adding transactional method 'save' with attribute: PROPAGATION_REQUIRED,ISOLATION_DEFAULT; ''
[DEBUG] Returning cached instance of singleton bean 'transactionManager'
[DEBUG] Creating new transaction with name [org.springframework.data.jpa.repository.support.SimpleJpaRepository.save]: PROPAGATION_REQUIRED,ISOLATION_DEFAULT; ''
[DEBUG] Opened new EntityManager [org.hibernate.jpa.internal.EntityManagerImpl@7c8874ef] for JPA transaction
[DEBUG] begin
[DEBUG] Exposing JPA transaction as JDBC transaction [org.springframework.orm.jpa.vendor.HibernateJpaDialect$HibernateConnectionHandle@42c0a16e]
[DEBUG] Executing identity-insert immediately
[DEBUG] insert into kitchen_order (id, cancel_reason, counter_id, creator_id, date_created, date_modified, kot_order_number, modifier_id, order_time, order_type, status, ver) values (default, ?, ?, ?, ?, ?, ?, ?, ?, ?, ?, ?)
[DEBUG] Natively generated identity: 1
[DEBUG] HHH000387: ResultSet's statement was not registered
[DEBUG] Executing identity-insert immediately
[DEBUG] insert into saleable_item (id, creator_id, date_created, date_modified, description, discount_allowed_flag, finished_item_code, in_house_item, maintain_stock, modifier_id, name, plu_code, take_away_item, telephone_order_item, unit_of_measurement, ver) values (default, ?, ?, ?, ?, ?, ?, ?, ?, ?, ?, ?, ?, ?, ?, ?)
[DEBUG] Natively generated identity: 1
[DEBUG] HHH000387: ResultSet's statement was not registered
[DEBUG] Executing identity-insert immediately
[DEBUG] insert into kitchen_order_item (id, counted_for_inventory, creator_id, date_created, date_modified, kitchen_order_id, modifier_id, quantity, remarks, saleable_item_id, status, ver) values (default, ?, ?, ?, ?, ?, ?, ?, ?, ?, ?, ?)
[DEBUG] Natively generated identity: 1
[DEBUG] HHH000387: ResultSet's statement was not registered
[DEBUG] Initiating transaction commit
[DEBUG] Committing JPA transaction on EntityManager [org.hibernate.jpa.internal.EntityManagerImpl@7c8874ef]
[DEBUG] committing
[DEBUG] Processing flush-time cascades
[DEBUG] Dirty checking collections
[DEBUG] Flushed: 0 insertions, 0 updates, 0 deletions to 3 objects
[DEBUG] Flushed: 0 (re)creations, 0 updates, 0 removals to 0 collections
[DEBUG] Listing entities:
[DEBUG] com.t4p.restaurant.persistence.KitchenOrder{orderType=null, ver=0, creatorId=null, modifierId=null, dateModified=null, counter=null, counterId=null, dateCreated=null, orderTime=null, kotOrderNumber=null, id=1, cancelReason=null, status=null}
[DEBUG] com.t4p.restaurant.persistence.SaleableItem{unitOfMeasurement=null, ver=0, discountAllowedFlag=null, finishedItemCode=null, creatorId=null, inHouseItem=null, modifierId=null, description=null, dateModified=null, telephoneOrderItem=null, pluCode=null, dateCreated=null, takeAwayItem=null, name=null, id=1, maintainStock=null}
[DEBUG] com.t4p.restaurant.persistence.OrderItem{countedForInventory=null, ver=0, quantity=3.566, creatorId=null, modifierId=null, dateModified=null, dateCreated=null, kitchenOrder=com.t4p.restaurant.persistence.KitchenOrder#1, saleableItem=com.t4p.restaurant.persistence.SaleableItem#1, kitchenOrderId=null, id=1, remarks=null, saleableItemId=null, status=null}
[DEBUG] Closing JPA EntityManager [org.hibernate.jpa.internal.EntityManagerImpl@7c8874ef] after transaction
[DEBUG] Closing JPA EntityManager
[DEBUG] Retrieved ApplicationContext from cache with key [[MergedContextConfiguration@443a06ad testClass = OrderItemServiceTest, locations = '{}', classes = '{class com.t4p.restaurant.CoreConfig}', contextInitializerClasses = '[]', activeProfiles = '{}', propertySourceLocations = '{}', propertySourceProperties = '{org.springframework.boot.test.context.SpringBootTestContextBootstrapper=true}', contextCustomizers = set[org.springframework.boot.test.context.SpringBootTestContextCustomizer@52525845, org.springframework.boot.test.context.filter.ExcludeFilterContextCustomizer@68ceda24, org.springframework.boot.test.mock.mockito.MockitoContextCustomizer@0, org.springframework.boot.test.autoconfigure.properties.PropertyMappingContextCustomizer@0, org.springframework.boot.test.autoconfigure.web.servlet.WebDriverContextCustomizerFactory$Customizer@27fe3806], contextLoader = 'org.springframework.boot.test.context.SpringBootContextLoader', parent = [null]]]
[DEBUG] Spring test ApplicationContext cache statistics: [DefaultContextCache@7e87ef9e size = 1, maxSize = 32, parentContextCount = 0, hitCount = 62, missCount = 1]
[DEBUG] Retrieved ApplicationContext from cache with key [[MergedContextConfiguration@443a06ad testClass = OrderItemServiceTest, locations = '{}', classes = '{class com.t4p.restaurant.CoreConfig}', contextInitializerClasses = '[]', activeProfiles = '{}', propertySourceLocations = '{}', propertySourceProperties = '{org.springframework.boot.test.context.SpringBootTestContextBootstrapper=true}', contextCustomizers = set[org.springframework.boot.test.context.SpringBootTestContextCustomizer@52525845, org.springframework.boot.test.context.filter.ExcludeFilterContextCustomizer@68ceda24, org.springframework.boot.test.mock.mockito.MockitoContextCustomizer@0, org.springframework.boot.test.autoconfigure.properties.PropertyMappingContextCustomizer@0, org.springframework.boot.test.autoconfigure.web.servlet.WebDriverContextCustomizerFactory$Customizer@27fe3806], contextLoader = 'org.springframework.boot.test.context.SpringBootContextLoader', parent = [null]]]
[DEBUG] Spring test ApplicationContext cache statistics: [DefaultContextCache@7e87ef9e size = 1, maxSize = 32, parentContextCount = 0, hitCount = 63, missCount = 1]
[DEBUG] Returning cached instance of singleton bean 'org.springframework.boot.test.mock.mockito.MockitoBeans'
[DEBUG] Retrieved ApplicationContext from cache with key [[MergedContextConfiguration@443a06ad testClass = OrderItemServiceTest, locations = '{}', classes = '{class com.t4p.restaurant.CoreConfig}', contextInitializerClasses = '[]', activeProfiles = '{}', propertySourceLocations = '{}', propertySourceProperties = '{org.springframework.boot.test.context.SpringBootTestContextBootstrapper=true}', contextCustomizers = set[org.springframework.boot.test.context.SpringBootTestContextCustomizer@52525845, org.springframework.boot.test.context.filter.ExcludeFilterContextCustomizer@68ceda24, org.springframework.boot.test.mock.mockito.MockitoContextCustomizer@0, org.springframework.boot.test.autoconfigure.properties.PropertyMappingContextCustomizer@0, org.springframework.boot.test.autoconfigure.web.servlet.WebDriverContextCustomizerFactory$Customizer@27fe3806], contextLoader = 'org.springframework.boot.test.context.SpringBootContextLoader', parent = [null]]]
[DEBUG] Spring test ApplicationContext cache statistics: [DefaultContextCache@7e87ef9e size = 1, maxSize = 32, parentContextCount = 0, hitCount = 64, missCount = 1]
[DEBUG] Retrieved ApplicationContext from cache with key [[MergedContextConfiguration@443a06ad testClass = OrderItemServiceTest, locations = '{}', classes = '{class com.t4p.restaurant.CoreConfig}', contextInitializerClasses = '[]', activeProfiles = '{}', propertySourceLocations = '{}', propertySourceProperties = '{org.springframework.boot.test.context.SpringBootTestContextBootstrapper=true}', contextCustomizers = set[org.springframework.boot.test.context.SpringBootTestContextCustomizer@52525845, org.springframework.boot.test.context.filter.ExcludeFilterContextCustomizer@68ceda24, org.springframework.boot.test.mock.mockito.MockitoContextCustomizer@0, org.springframework.boot.test.autoconfigure.properties.PropertyMappingContextCustomizer@0, org.springframework.boot.test.autoconfigure.web.servlet.WebDriverContextCustomizerFactory$Customizer@27fe3806], contextLoader = 'org.springframework.boot.test.context.SpringBootContextLoader', parent = [null]]]
[DEBUG] Spring test ApplicationContext cache statistics: [DefaultContextCache@7e87ef9e size = 1, maxSize = 32, parentContextCount = 0, hitCount = 65, missCount = 1]
[DEBUG] After test method: context [DefaultTestContext@492521c4 testClass = OrderItemServiceTest, testInstance = com.t4p.restaurant.service.OrderItemServiceTest@6ddd1c51, testMethod = createOrderItem@OrderItemServiceTest, testException = java.lang.AssertionError: expected null, but was:<SaleableItem(id=1, ver=0, dateCreated=null, dateModified=null, creatorId=null, modifierId=null, name=null, description=null, pluCode=null, inHouseItem=null, takeAwayItem=null, telephoneOrderItem=null, finishedItemCode=null, unitOfMeasurement=null, discountAllowedFlag=null, maintainStock=null)>, mergedContextConfiguration = [MergedContextConfiguration@443a06ad testClass = OrderItemServiceTest, locations = '{}', classes = '{class com.t4p.restaurant.CoreConfig}', contextInitializerClasses = '[]', activeProfiles = '{}', propertySourceLocations = '{}', propertySourceProperties = '{org.springframework.boot.test.context.SpringBootTestContextBootstrapper=true}', contextCustomizers = set[org.springframework.boot.test.context.SpringBootTestContextCustomizer@52525845, org.springframework.boot.test.context.filter.ExcludeFilterContextCustomizer@68ceda24, org.springframework.boot.test.mock.mockito.MockitoContextCustomizer@0, org.springframework.boot.test.autoconfigure.properties.PropertyMappingContextCustomizer@0, org.springframework.boot.test.autoconfigure.web.servlet.WebDriverContextCustomizerFactory$Customizer@27fe3806], contextLoader = 'org.springframework.boot.test.context.SpringBootContextLoader', parent = [null]]], class annotated with @DirtiesContext [false] with mode [null], method annotated with @DirtiesContext [false] with mode [null].
]]></system-out>
  </testcase>
</testsuite>